[
	{
		"question": "Quel monstre utilise un arc ?",
		"_comment": "",
		"reponses": [
			"Le squelette",
			"Le creeper",
			"L'enderman",
			"Le zombie"
		],
		"theme": [
			"mob hostiles",
			"armes"
		],
		"difficulty": "easy"
	},
	
	{
		"question": "Comment certains monstres peuvent eviter de bruler au soleil ?",
		"_comment": "",
		"reponses": [
			"En portant un casque",
			"Avec un enchantement"
		],
		"theme": [
			"mob hostiles"
		],
		"difficulty": "easy"
	},
	
	{
		"question": "Lequel de ces monstres peut monter aux murs ?",
		"_comment": "",
		"reponses": [
			"L'araignee",
			"Le creeper",
			"Le slime",
			"L'ender mite"
		],
		"theme": [
			"mob hostiles"
		],
		"difficulty": "easy"
	},
	
	{
		"question": "Lequel de ces monstres peut traverser les blocs ?",
		"_comment": "",
		"reponses": [
			"Le vexe",
			"Le creeper",
			"La sorciere",
			"Le phantom"
		],
		"theme": [
			"mob hostiles"
		],
		"difficulty": "easy"
	},
	
	{
		"question": "Lequel de ces monstres n'est pas aquatique ?",
		"_comment": "",
		"reponses": [
			"Le poisson d'argent",
			"Le noye",
			"Le gardien",
			"Le grand gardien"
		],
		"theme": [
			"mob hostiles",
			"ocean"
		],
		"difficulty": "easy"
	},
	
	{
		"question": "Combien de fois peut se diviser un slime au maximum ?",
		"_comment": "",
		"reponses": [
			"2",
			"4",
			"5",
			"6"
		],
		"theme": [
			"mob hostiles"
		],
		"difficulty": "easy"
	},
	
	{
		"question": "Pour lequel de ces monstres n'existe il pas de variante ?",
		"_comment": "",
		"reponses": [
			"Le blaze",
			"Le zombie",
			"Le squelette",
			"L'araignee"
		],
		"theme": [
			"mob hostiles"
		],
		"difficulty": "easy"
	},
	
	{
		"question": "Quel monstre ne trouve on jamais dans un spawner ?",
		"_comment": "",
		"reponses": [
			"Le vexe",
			"Le cube de magma",
			"L'araignee bleue",
			"Le poisson d'argent"
		],
		"theme": [
			"mob hostiles"
		],
		"difficulty": "easy"
	},
	
	{
		"question": "Lequel de ces monstres ne vole pas ?",
		"_comment": "",
		"reponses": [
			"Le gardian",
			"Le vexe",
			"Le blaze",
			"Le ghast"
		],
		"theme": [
			"mob hostiles"
		],
		"difficulty": "easy"
	},
	
	{
		"question": "Il est possible d'obtenir une tete de zombie en survie ?",
		"_comment": "",
		"reponses": [
			"Vrai",
			"Faux"
		],
		"theme": [
			"mob hostiles"
		],
		"difficulty": "easy"
	},
	
	{
		"question": "Lequel de ces monstres ne voit on jamais chevaucher une autre creature ?",
		"_comment": "",
		"reponses": [
			"La sorciere",
			"Le bebe zombie",
			"Le squelette",
			"Le pillard"
		],
		"theme": [
			"mob hostiles"
		],
		"difficulty": "medium"
	},
	
	{
	"question": "Parmi ces animaux, lequel possede une version \" tueur \"",
		"_comment": "",
		"reponses": [
			"Le lapin",
			"La vache",
			"Le cochon",
			"La poule"
		],
		"theme": [
			"mob hostiles",
			"animaux"
		],
		"difficulty": "medium"
	},
	
	{
		"question": "Lequel de ces monstres se multiplie quand on l'approche ?",
		"_comment": "",
		"reponses": [
			"Le cheval-squelette",
			"Le slime",
			"Le poisson d'argent",
			"Le zombie"
		],
		"theme": [
			"mob hostiles"
		],
		"difficulty": "medium"
	},
	
	{
		"question": "Lequel de ces monstres ne se bat jamais avec une epee ?",
		"_comment": "",
		"reponses": [
			"La pillard",
			"Le wither squelette",
			"Le piglin",
			"Le vexe"
		],
		"theme": [
			"mob hostiles",
			"armes"
		],
		"difficulty": "medium"
	},
	
	{
		"question": "Lequel de ces monstres n'est pas relie à un succes ?",
		"_comment": "",
		"reponses": [
			"La sorciere",
			"Le shulker",
			"Le ghast",
			"Le wither squelette"
		],
		"theme": [
			"mob hostiles",
			"succes"
		],
		"difficulty": "medium"
	},
	
	{
		"question": "Quel creature ne change pas quand elle se prend un eclair ?",
		"_comment": "",
		"reponses": [
			"Le zombie",
			"Le villageois",
			"Le cochon",
			"Le creeper"
		],
		"theme": [
			"mob hostiles"
		],
		"difficulty": "medium"
	},

	{	 
		"question": "Lequel de ces monstres ne sait pas nager ?",
		"_comment": "",
		"reponses": [
			"Le zombie",
			"L'araignee",
			"Le creeper",
			"La sorciere"
		],
		"theme": [
			"mob hostiles",
			"armes"
		],
		"difficulty": "medium"
	},
	
	{
		"question": "Quel monstre ne se teleporte pas ?",
		"_comment": "",
		"reponses": [
			"L'ender mite",
			"Le shulker"
		],
		"theme": [
			"mob hostiles"
		],
		"difficulty": "medium"
	},
	
	{
		"question": "Lequel de ses monstres ne fait pas de degat au corps a corps ?",
		"_comment": "",
		"reponses": [
			"La sorciere",
			"Le gardien",
			"Le blaze",
			"Le zombie"
		],
		"theme": [
			"mob hostiles"
		],
		"difficulty": "medium"
	},
	
	{
		"question": "Quel monstre ne lance jamais de projectile ?",
		"_comment": "",
		"reponses": [
			"Le vindicateur",
			"Le shulker",
			"La sorciere",
			"Le noye"
		],
		"theme": [
			"mob hostiles"
		],
		"difficulty": "medium"
	},
	
	{
		"question": "Quel monstre devient tres agressif envers toutes les creatures quand on le renomme \"Johnny\" ?",
		"_comment": "",
		"reponses": [
			"Le vindicateur",
			"Le zombie",
			"Le squelette",
			"Le wither"
		],
		"theme": [
			"mob hostiles"
		],
		"difficulty": "hard"
	},
	
	{
		"question": "Quel monstre ne peut pas casser de blocs ?",
		"_comment": "",
		"reponses": [
			"Le grand gardien",
			"Le ravageur",
			"Le creeper",
			"Le wither"
		],
		"theme": [
			"mob hostiles"
		],
		"difficulty": "hard"
	},
	
	{
		"question": "Lequel de ces monstres ne donne jamais d'effet lorsqu'il fait des degats ?",
		"_comment": "",
		"reponses": [
			"L'evocateur",
			"Le vagabond"
		],
		"theme": [
			"mob hostiles",
			"effets"
		],
		"difficulty": "hard"
	},
	
	{
		"question": "Le dragon est le seul à pouvoir creer un effet de potion perdurant ?",
		"_comment": "",
		"reponses": [
			"Faux",
			"Vrai"
		],
		"theme": [
			"mob hostiles",
			"effets"
		],
		"difficulty": "hard"
	},
	
	{
		"question": "Lequel de ces monstres est le plus petit ?",
		"_comment": "",
		"reponses": [
			"Le creeper",
			"Le wither squelette",
			"L'enderman",
			"Le squelette"
		],
		"theme": [
			"mob hostiles"
		],
		"difficulty": "hard"
	},
	
	{
		"question": "Quel animal ne peut jamais devenir hostile ?",
		"_comment": "",
		"reponses": [
			"Le renard",
			"L'abeille",
			"Le loup",
			"Le lama"
		],
		"theme": [
			"mob hostiles",
			"animaux"
		],
		"difficulty": "hard"
	},
	
	{
		"question": "Lequel de ces monstres est disponible dans le jeu sans utiliser les commandes ?",
		"_comment": "",
		"reponses": [
			"L'araignee chevauchee",
			"Le geant",
			"L'illusioniste",
			"Le cheval zombie"
		],
		"theme": [
			"mob hostiles"
		],
		"difficulty": "hard"
	},
	
	{
		"question": "Laquel de ces creatures n'est pas un arthropode ?",
		"_comment": "",
		"reponses": [
			"L'ender mite",
			"Le poisson d'argent",
			"L'abeille",
			"L'araignee"
		],
		"theme": [
			"mob hostiles",
			"enchantements"
		],
		"difficulty": "hard"
	},
	
	{
		"question": "Renommer un ender dragon \"Dinnerbone\"  le retournera",
		"_comment": "",
		"reponses": [
			"Faux",
			"Vrai"
		],
		"theme": [
			"mob hostiles"
		],
		"difficulty": "hard"
	},
	
	{
		"question": "Les pandas ne sont jamais aggresifs",
		"_comment": "",
		"reponses": [
			"Faux",
			"Vrai"
		],
		"theme": [
			"mob hostiles",
			"animaux"
		],
		"difficulty": "hard"
	},
    
    
    
    {
        "question": "Quelle est la distance maximale sur laquelle un signal redstone peut se propager ?",
		"_comment": "",
        "reponses": [
			"15 blocs",
			"14 blocs",
			"13 blocs",
			"16 blocs"
		],
        "theme": [
			"redstone"
		],
        "difficulty": "easy"
	},
    {
        "question": "En redstone, un bloc est dit opaque quand...",
		"_comment": "",
        "reponses": [
			"il empeche les circuits redstones de ce connecter",
			"il ne laisse pas passer la lumiere",
			"on ne peut pas voir au travers",
            "il se fait casser par un piston"
		],
        "theme": [
			"redstone"
		],
        "difficulty": "easy"
	},
    {
        "question": "Les trappes en bois, contrairement aux trappes en fer ne reagissent pas aux signaux redstones",
		"_comment": "",
        "reponses": [
			"faux",
			"vrai"
		],
        "theme": [
			"redstone"
		],
        "difficulty": "easy"
	},
    {
        "question": "Le temps d'impulsion des boutons depend de leur materiau",
		"_comment": "",
        "reponses": [
			"vrai",
			"faux"
		],
        "theme": [
			"redstone"
		],
        "difficulty": "easy"
	},
    {
        "question": "Combien de stacks un entonnoir peut-il contenir ?",
		"_comment": "",
        "reponses": [
			"5",
			"9",
			"27",
			"18"
		],
        "theme": [
			"redstone"
		],
        "difficulty": "easy"
	},
    {
        "question": "Quelle est la distance de tension maximale d'une ficelle entre deux crochets",
		"_comment": "",
        "reponses": [
			"40 blocs",
			"15 blocs",
			"20 blocs",
			"50 blocs"
		],
        "theme": [
			"redstone"
		],
        "difficulty": "easy"
	},
    {
        "question": "Combiens de tics s'ecoulent en une seconde de jeu ?",
		"_comment": "",
        "reponses": [
			"20 tics",
			"60 tics",
			"30 tics",
			"10 tics"
		],
        "theme": [
			"redstone",
            "technique"
		],
        "difficulty": "easy"
	},
    {
        "question": "Quelle palque de pression peut detecter toutes les entitees ?",
		"_comment": "",
        "reponses": [
			"plaque de pression en or",
			"plaque de pression en bois",
			"plaque de pression en pierre",
			"plaque de pression en fer"
		],
        "theme": [
			"redstone",
            "technique"
		],
        "difficulty": "easy"
	},
    {
        "question": "A quoi sert un repeteur ?",
		"_comment": "",
        "reponses": [
			"rajouter un delai dans le signal restone",
			"couper le signal redstone s'il est trop faible"
		],
        "theme": [
			"redstone"
		],
        "difficulty": "easy"
	},
    {
        "question": "Quel bloc donne un son de synthe au bloc musical ?",
		"_comment": "",
        "reponses": [
			"bloc d'emeraude",
			"bloc de tnt",
			"bloc de charbon",
            "bloc d'or"
		],
        "theme": [
			"redstone",
			"bloc"
		],
        "difficulty": "easy"
	},

    {
        "question": "Qu'est ce qui ne peut pas etre fait avec un distributeur",
		"_comment": "",
        "reponses": [
			"Collecter un liquide dans un chaudron",
			"Tondre un mouton",
			"Collecter de l'eau",
            "Jeter une potion"
		],
        "theme": [
			"redstone"
		],
        "difficulty": "medium"
	},
    {
        "question": "Ou vont les items en priorite ?",
        "_comment": "img_redstone_0",
        "reponses": [
			"en bas",
			"dans le coffre"
		],
        "theme": [
			"redstone"
		],
        "difficulty": "medium"
	},
    {
        "question": "Quel composant logique ce circuit redstone represente ?",
        "_comment": "img_redstone_1",
        "reponses": [
			"OR",
			"AND",
            "XOR",
            "NOR"
		],
        "theme": [
			"redstone"
		],
        "difficulty": "medium"
	},
    {
        "question": "Quel composant logique ce circuit redstone represente ?",
        "_comment": "img_redstone_2",
        "reponses": [
			"AND",
			"OR",
            "XOR",
            "NOR"
		],
        "theme": [
			"redstone"
		],
        "difficulty": "medium"
	},
    {
        "question": "La trajectoire d'une perle de l'end peut-elle etre modifiee",
		"_comment": "",
        "reponses": [
			"Oui",
			"Non"
		],
        "theme": [
			"redstone"
		],
        "difficulty": "medium"
	},
    {
        "question": "Quel etat de bloc ne peut pas etre evalue par un comparateur",
		"_comment": "",
        "reponses": [
			"Coffre de l'ender",
			"Cadre",
            "Gateau",
            "Boite shulker"
		],
        "theme": [
			"redstone"
		],
        "difficulty": "medium"
	},
    {
        "question": "Le capteur de lumiere est t'il influence par la meteo ?",
		"_comment": "",
        "reponses": [
			"Oui",
			"Non"
		],
        "theme": [
			"redstone"
		],
        "difficulty": "medium"
	},
    {
        "question": "Un entonnoir peut-il communiquer avec un alambic ?",
		"_comment": "",
        "reponses": [
			"Oui",
			"Non"
		],
        "theme": [
			"redstone"
		],
        "difficulty": "medium"
	},
    {
        "question": "Les rails peuvent-ils etre deplaces par des pistons ?",
		"_comment": "",
        "reponses": [
			"Oui",
			"Non"
		],
        "theme": [
			"redstone"
		],
        "difficulty": "medium"
	},
    {
        "question": "Il est possible d'enchanter des items sans assistance du joueur avec des fioles d'experience",
		"_comment": "",
        "reponses": [
			"Faux",
			"Vrai"
		],
        "theme": [
			"redstone",
            "technique"
		],
        "difficulty": "medium"
	},

    {
        "question": "A quoi sert cette construction ?",
        "_comment": "img_redstone_3",
        "reponses": [
			"A provoquer un StackOverflow",
			"A collecter des items à tres haute vitesse",
            "A accelerer un minecart au delà des limites de vitesses",
            "A faire des circuits de course"
		],
        "theme": [
			"redstone",
            "technique"
		],
        "difficulty": "hard"
	},
    {
        "question": "Qu'est ce que ce circuit redstone ?",
        "_comment": "img_redstone_5",
        "reponses": [
			"Une horloge",
			"Un filtre à item",
            "Un detecteur de clee",
            "Un petit systeme de deplacement d'item"
		],
        "theme": [
			"redstone"
		],
        "difficulty": "hard"
	},
    {
        "question": "Qu'est ce que ce circuit redstone ?",
        "_comment": "img_redstone_6",
        "reponses": [
			"Un dechargeur de minecart",
			"Un chargeur de minecart",
            "Un propulseur de minecart",
            "Un petit systeme de deplacement d'item"
		],
        "theme": [
			"redstone"
		],
        "difficulty": "hard"
	},
    {
        "question": "Qu'est ce que ce circuit redstone ?",
        "_comment": "img_redstone_7",
        "reponses": [
			"Un chargeur de minecart",
			"Un dechargeur de minecart",
            "Un propulseur de minecart",
            "Un petit systeme de deplacement d'item"
		],
        "theme": [
			"redstone"
		],
        "difficulty": "hard"
	},
    {
        "question": "Quel est l'usage technique du corail ?",
		"_comment": "",
        "reponses": [
			"Dupliquer la tnt",
			"Deplacer une source d'eau",
            "Dupliquer des blocs",
            "Aucune de ces reponses"
		],
        "theme": [
			"redstone",
            "technique"
		],
        "difficulty": "hard"
	},
    {
        "question": "Quel est le nombre maximal par defaut d'entite sur le meme bloc ?",
		"_comment": "",
        "reponses": [
			"24",
			"36",
            "18",
            "54"
		],
        "theme": [
			"redstone",
            "technique"
		],
        "difficulty": "hard"
	},
    {
        "question": "Quel composant logique ce circuit redstone represente ?",
        "_comment": "img_redstone_4",
        "reponses": [
			"XOR",
			"OR",
            "AND",
            "NOR"
		],
        "theme": [
			"redstone"
		],
        "difficulty": "hard"
	},
    {
        "question": "Quelle est la particularite du bloc cible ?",
		"_comment": "",
        "reponses": [
			"il est opaque mais redirige les circuits redstones vers lui meme",
			"il emet constament un signal redstone",
            "il envoie des signaux redstones allant jusqu'à 16",
            "il ne peut pas etre recupere à la main"
		],
        "theme": [
			"redstone"
		],
        "difficulty": "hard"
	},
    {
        "question": "Il est possible de pousser un minecart un piston et un bloc de slime ?",
		"_comment": "",
        "reponses": [
			"vrai",
			"faux"
		],
        "theme": [
			"redstone"
		],
        "difficulty": "hard"
	},
    {
        "question": "un observeur peut detecter si un bloc de tnt est allume ?",
		"_comment": "",
        "reponses": [
			"oui",
			"non"
		],
        "theme": [
			"redstone"
		],
        "difficulty": "hard"
	},
	{
		"question": "Quel est le nom du succes ou l'on doit visiter tous les biomes ?",
		"_comment": "",
		"reponses": [
			"Partons à l'aventure !",
			"Un grand voyage !",
			"La grande marche",
			"Cartographe"
		],
		"theme": [
			"biomes",
			"succes"
		],
		"difficulty": "hard"
	},
    {
        "question": "Peut-il y avoir des bambous dans le biome de la jungle ?",
		"_comment": "",
        "reponses": [
			"Oui",
			"Non"
		],
        "theme": [
			"biome"
		],
        "difficulty": "easy"
	},
    {
        "question": "Dans quelle foret trouve t-on des champignons geants ?",
		"_comment": "",
        "reponses": [
			"Foret sombre",
			"Foret de bouleaux",
			"Foret venteuse",
			"Foret fleurie"
		],
        "theme": [
			"biome"
		],
        "difficulty": "easy"
	},
    {
        "question": "Dans quel biome les mobs hostiles n'aparaissent pas a sa surface ?",
		"_comment": "",
        "reponses": [
			"Champs de champignons",
			"Prairie",
			"Desert",
			"Savane"
		],
        "theme": [
			"biome"
		],
        "difficulty": "easy"
	},
    {
        "question": "Quel biome est-ce ? ",
        "_comment": "crimson",
        "reponses": [
			"Foret carmin",
			"Vallee des ames",
			"Foret biscornue",
			"Terres desolees du Nether"
		],
        "theme": [
			"biome"
		],
        "difficulty": "easy"
	},
    {
        "question": "Dans quel biome il y a le plus d'emeraudes ?",
		"_comment": "",
        "reponses": [
			"Montagne",
			"Desert",
			"Jungle",
			"Riviere"
		],
        "theme": [
			"biome"
		],
        "difficulty": "easy"
	},
    {
        "question": "Dans quel biome il y a des perroquets ?",
		"_comment": "",
        "reponses": [
			"Jungle",
			"Savane",
			"Plaine",
			"Montagne"
		],
        "theme": [
			"biome"
		],
        "difficulty": "easy"
	},
    {
        "question": "Dans quel biome naissent les tortues ?",
		"_comment": "",
        "reponses": [
			"Plage",
			"Desert",
			"Ocean",
			"Ocean Chaud"
		],
        "theme": [
			"biome"
		],
        "difficulty": "easy"
	},
    {
        "question": "Quel biome est-ce ?",
		"_comment": "ocean",
        "reponses": [
			"Ocean chaud",
			"Ocean tiede",
			"Ocean",
			"Ocean profond"
		],
        "theme": [
			"biome"
		],
        "difficulty": "easy"
	},
    {
        "question": "Existe-t-il un biome plage recouvert de neige ?",
		"_comment": "",
        "reponses": [
			"Oui",
			"Non"
			
		],
        "theme": [
			"biome"
		],
        "difficulty": "easy"
	},
    {
        "question": "Dans quel biome un nid d'abeilles peut apparaitre ?",
		"_comment": "",
        "reponses": [
			"Prairie",
			"Savane",
			"Foret",
			"Taiga"
		],
        "theme": [
			"biome"
		],
        "difficulty": "easy"
	},
    {
        "question": "Que se passe t-il quand on veut dormir dans un biome nether avec un lit ?",
		"_comment": "",
        "reponses": [
			"Le lit explose",
			"On dort paisiblement",
			"On ne peut pas dormir",
			"Le lit brule"
		],
        "theme": [
			"biome"
		],
        "difficulty": "medium"
	},
    {
        "question": "Comment se nommait anciennement le biome badlands ",
		"_comment": "",
        "reponses": [
			"mesa"
		],
        "theme": [
			"biome"
		],
        "difficulty": "medium"
	},
	{
        "question": "Quel biome ne possede pas de village ?",
		"_comment": "",
        "reponses": [
			"Foret",
			"Prairie",
			"Desert",
			"Savane"
		],
        "theme": [
			"biome"
		],
        "difficulty": "medium"
	},
	{
        "question": "Peut-on trouver du saumon dans le biome Ocean profond ?",
		"_comment": "",
        "reponses": [
			"Non",
			"Oui"
			
		],
        "theme": [
			"biome"
		],
        "difficulty": "medium"
	},
	{
        "question": "Quel biome possede une Cabane abandonnee",
		"_comment": "",
        "reponses": [
			"Marais"
			
		],
        "theme": [
			"biome"
		],
        "difficulty": "medium"
	},
	{
        "question": "Dans quel type de biome se situe les renards ?",
		"_comment": "",
        "reponses": [
			"Biomes enneiges ",
			"Biomes froids",
			"Biomes temperes",
			"Biomes arides"
			
		],
        "theme": [
			"biome"
		],
        "difficulty": "medium"
	},

	{
        "question": "Quel genre de bois est present dans le biome taiga ?",
		"_comment": "",
        "reponses": [
			"Sapin",
			"Acacia",
			"Chene",
			"Bouleau"
		],
        "theme": [
			"biome"
		],
        "difficulty": "medium"
	},
	{
        "question": "Dans quel biome trouve-t-on les manoirs ?",
		"_comment": "",
        "reponses": [
			"Foret sombre",
			"Taiga",
			"Marais",
			"Jungle"
		],
        "theme": [
			"biome"
		],
        "difficulty": "medium"
	},
	{
        "question": "Dans quel biome apparaissent les lamas ?",
		"_comment": "",
        "reponses": [
			"Plateau de savane",
			"Savane"
			
		],
        "theme": [
			"biome"
		],
        "difficulty": "medium"
	},
	{
        "question": "Combiens de biomes possede le Nether ?",
		"_comment": "",
        "reponses": [
			"5",
			"6",
			"4",
			"3"
		],
        "theme": [
			"biome"
		],
        "difficulty": "medium"
	},
	{
        "question": "Combiens de biomes possede le Nether ?",
		"_comment": "",
        "reponses": [
			"5",
			"6",
			"4",
			"3"
		],
        "theme": [
			"biome"
		],
        "difficulty": "medium"
	},
	{
        "question": "Comment s'appellera le nouveau biome qui se situera en dessous de la couche 0",
		"_comment": "",
        "reponses": [
			"Abimes",
			"Bas-Fond",
			"Neant",
			"Fosse"
		],
        "theme": [
			"biome"
		],
        "difficulty": "hard"
	},
	{
        "question": "Existe-il un biome special nomme Le Vide ?",
		"_comment": "",
        "reponses": [
			"Oui",
			"Non"
			
		],
        "theme": [
			"biome"
		],
        "difficulty": "hard"
	},
	{
		"question": "Combien y a t-il de biome dans le jeu ?",
		"_comment": "",
		"reponses": [
			"60",
			"50",
			"64",
			"70"
		],
		"theme": [
			"biomes"
		],
		"difficulty": "hard"
	},
	{
		"question": "Dans quel biome peut on debloquer le progres \"La Melodie du bonheur\" ?",
		"_comment": "",
		"reponses": [
			"La prairie",
			"La montagne",
			"L'ocean",
			"une foret"
	],
		"theme": [
			"biomes"
	],
		"difficulty": "hard"
	},
	{
        "question": "Existe-il une structure, en plus de la cabane abandonnee, qui peut se situer dans le biome marais ?",
		"_comment": "",
        "reponses": [
			"Oui",
			"Non"
		],
        "theme": [
			"biome"
		],
        "difficulty": "hard"
	},
	{
        "question": "Dans quel biome peut il y avoir des chevaux et des lamas ?",
		"_comment": "",
        "reponses": [
			"Savane",
			"Collines Venteuses",
			"Prairie",
			"Foret"
		],
        "theme": [
			"biome"
		],
        "difficulty": "hard"
	},
	{
        "question": "Quel mob ne pourra jamais spawn dans un biome riviere ?",
		"_comment": "",
        "reponses": [
			"Morue ",
			"Saumon",
			"Poulpe",
			"Sorciere"
		],
        "theme": [
			"biome"
		],
        "difficulty": "hard"
	},
	{
        "question": "Quel biome de l'end n'existe pas ?",
		"_comment": "",
        "reponses": [
			"Moyennes îles de l'End",
			"Terres moyennes de l'End",
			"Hautes terres de l'End",
			"Terres steriles de l'End"
		],
        "theme": [
			"biome"
		],
        "difficulty": "hard"
	},
	{
        "question": "Combiens y a t-il de mobs dans le nether qu'on peut trouver dans le monde normal ?",
		"_comment": "",
        "reponses": [
			"3",
			"2",
			"4",
			"1"
		],
        "theme": [
			"biome"
		],
        "difficulty": "hard"
	}


]

		
